<?xml version="1.0" encoding="UTF-8" standalone="no"?>
<svg width="16px" height="16px" viewBox="0 0 16 16" version="1.1" xmlns="http://www.w3.org/2000/svg" xmlns:xlink="http://www.w3.org/1999/xlink">
    <!-- Generator: Sketch 40 (33762) - http://www.bohemiancoding.com/sketch -->
    <title>Slice 1</title>
    <desc>Created with Sketch.</desc>
    <defs></defs>
    <g id="Page-1" stroke="none" stroke-width="1" fill="none" fill-rule="evenodd">
        <g id="contact_grey" fill="#4A4A4A">
            <g id="iconmonstr-phone-5">
                <g id="Page-1">
                    <g id="iconmonstr-phone-5">
                        <path d="M6.24768,0.84608 L8.0672,0 L10.65344,5.0496 L8.90944,5.90784 C8.56576,6.7136 10.2912,9.9328 11.01952,9.98592 C11.07712,9.9488 12.7296,9.136 12.7296,9.136 L15.36,14.21312 C15.36,14.21312 13.59104,15.07968 13.53344,15.10656 C8.5024,17.40416 1.3088,3.4208 6.24768,0.84608 L6.24768,0.84608 L6.24768,0.84608 Z M7.48224,1.66144 L6.82752,1.984 C3.44,3.75168 9.50144,15.5424 13.00224,13.94304 L13.62432,13.63968 L12.17088,10.83456 L11.51424,11.15456 C9.48992,12.14464 6.22656,5.8944 8.27904,4.79424 L8.92352,4.47616 L7.48224,1.66144 L7.48224,1.66144 L7.48224,1.66144 Z M6.99648,13.42592 C6.05312,14.3488 4.49152,14.51904 4.04992,13.76 C3.74912,13.24224 3.85088,12.65408 3.96864,11.97248 C4.09728,11.22944 4.2432,10.38656 3.77984,9.59808 C2.99968,8.2688 1.28576,8.32896 0,9.16864 L0.61184,10.10496 C1.1424,9.75808 1.7536,9.60896 2.20736,9.7152 C3.26528,9.96352 2.944,11.33184 2.86656,11.78176 C2.73088,12.56448 2.57856,13.45216 3.08224,14.32128 C3.93408,15.78944 6.3168,15.63136 7.74784,14.26304 C7.49376,14.00256 7.24288,13.72544 6.99648,13.42592 L6.99648,13.42592 L6.99648,13.42592 Z" id="Shape"></path>
                    </g>
                </g>
            </g>
        </g>
    </g>
</svg>